%YAML 1.1
%TAG !u! tag:unity3d.com,2011:
--- !u!114 &11400000
MonoBehaviour:
  m_ObjectHideFlags: 0
  m_PrefabParentObject: {fileID: 0}
  m_PrefabInternal: {fileID: 0}
  m_GameObject: {fileID: 0}
  m_Enabled: 1
  m_EditorHideFlags: 0
  m_Script: {fileID: 11500000, guid: 945a973683914814d97af8ed22adb14e, type: 3}
  m_Name: Miner Mike
  m_EditorClassIdentifier: 
  item:
    name: Miner Mike
    desc: A basic companion
    iconSprite: {fileID: 21300000, guid: f62bad87d50799244ac5f183a94f4f6a, type: 3}
    gameObject: {fileID: 1165896570495566, guid: 136dc2bbe7c3dad48ae2f01a0594f06a,
      type: 2}
    equipped: 0
    ownerID: 
    stats:
      attack: 1
      defense: 1
      miningEfficiency: 1
      luck: 1
    statPercents:
      attack: 0.4
      defense: 0.1
      miningEfficiency: 0.4
      luck: 0.1
    level: 1
    tags:
    - companion
    isActor: 1
