%YAML 1.1
%TAG !u! tag:unity3d.com,2011:
--- !u!114 &11400000
MonoBehaviour:
  m_ObjectHideFlags: 0
  m_PrefabParentObject: {fileID: 0}
  m_PrefabInternal: {fileID: 0}
  m_GameObject: {fileID: 0}
  m_Enabled: 1
  m_EditorHideFlags: 0
  m_Script: {fileID: 11500000, guid: 789b817da5f4a4542beddf3f213736ee, type: 3}
  m_Name: Head2
  m_EditorClassIdentifier: 
  gameObject: {fileID: 1189160026528554, guid: 07aa66c9d79b71c4fbe70ca738b50d4c, type: 2}
  material: {fileID: 2100000, guid: 903da7a8545fafc42a000bebc69563f8, type: 2}
